^C:\USERS\F2001\ONEDRIVE\桌面\C&C++\TEST_POINTER_SAMPLE\TEST_POINTER_SAMPLE\TEST_POINTER_SAMPLE\DEBUG\TEST_POINTER_SAMPLE.OBJ
C:\USERS\F2001\ONEDRIVE\桌面\C&C++\TEST_POINTER_SAMPLE\TEST_POINTER_SAMPLE\DEBUG\TEST_POINTER_SAMPLE.EXE
C:\USERS\F2001\ONEDRIVE\桌面\C&C++\TEST_POINTER_SAMPLE\TEST_POINTER_SAMPLE\DEBUG\TEST_POINTER_SAMPLE.ILK
C:\USERS\F2001\ONEDRIVE\桌面\C&C++\TEST_POINTER_SAMPLE\TEST_POINTER_SAMPLE\DEBUG\TEST_POINTER_SAMPLE.PDB
^C:\USERS\FR123\DESKTOP\C_PROGRAMING\TEST_POINTER_SAMPLE\TEST_POINTER_SAMPLE\TEST_POINTER_SAMPLE\DEBUG\TEST_POINTER_SAMPLE.OBJ
C:\USERS\FR123\DESKTOP\C_PROGRAMING\TEST_POINTER_SAMPLE\TEST_POINTER_SAMPLE\TEST_POINTER_SAMPLE\DEBUG\TEST_POINTER_SAMPLE.ILK
C:\USERS\FR123\DESKTOP\C_PROGRAMING\TEST_POINTER_SAMPLE\TEST_POINTER_SAMPLE\TEST_POINTER_SAMPLE\DEBUG\TEST_POINTER_SAMPLE.EXE
C:\USERS\FR123\DESKTOP\C_PROGRAMING\TEST_POINTER_SAMPLE\TEST_POINTER_SAMPLE\TEST_POINTER_SAMPLE\DEBUG\TEST_POINTER_SAMPLE.PDB
